{
    "xsappname": "functionimport",
    "tenant-mode": "dedicated",
    "description": "Security profile of called application",
    "scopes": [
        {
            "name": "uaa.user",
            "description": "UAA"
        }
    ],
    "role-templates": [
        {
            "name": "Token_Exchange",
            "description": "UAA",
            "scope-references": [
                "uaa.user"
            ]
        }
    ],
    "oauth2-configuration": {
        "token-validity": 900,
        "redirect-uris": [
            "https://*.applicationstudio.cloud.sap/**",
            "https://*.cfapps.eu10.hana.ondemand.com/**"
        ]
    }
}